Project 1: Wrangling, Exploration, Visualization
…
# filter out skipped songs
joined <- joined %>% filter(minutesPlayed > 0)

# exploring what artists were most frequently listened to the
# most during sagittarius season
joined %>% filter(SunConstellation == "Sagittarius") %>% group_by(artistName) %>% 
    summarize(n = n()) %>% arrange(desc(n))

## # A tibble: 395 x 2
##    artistName         n
##    <chr>          <int>
##  1 Chase Atlantic   216
##  2 GOT7              86
##  3 BTS               83
##  4 Jessi             76
##  5 Ariana Grande     55
##  6 ITZY              55
##  7 Toby Fox          54
##  8 Glass Animals     51
##  9 Mystery Skulls    47
## 10 Slushii           45
## #  with 385 more rows
…
joined %>% group_by(artistName) %>% summarize(ArtistFreq = n()) %>% 
    arrange(desc(ArtistFreq))

## # A tibble: 743 x 2
##    artistName          ArtistFreq
##    <chr>                    <int>
##  1 Mystery Skulls             345
##  2 Chase Atlantic             263
##  3 BTS                        198
##  4 GOT7                       186
##  5 Toby Fox                   180
##  6 Ariana Grande              149
##  7 Panic! At The Disco        107
##  8 K/DA                        93
##  9 Jessi                       89
## 10                     87
## #  with 733 more rows

joined %>% group_by(trackName) %>% summarize(SongFreq = n()) %>% 
    arrange(desc(SongFreq))

## # A tibble: 1,694 x 2
##    trackName                      SongFreq
##    <chr>                             <int>
##  1 NUNU NANA                            86
##  2 The Future                           56
##  3 Dope                                 46
##  4 Hellbent (feat. Snowblood)           44
##  5 Round & Round                        44
##  6 Galaxy                               42
##  7 Q.U.E.E.N. (feat. Erykah Badu)       41
##  8 Whatever It Takes                    41
##  9 Hymn for the Weekend                 40
## 10 No Care                              39
## #  with 1,684 more rows
…
Full Moon
2.114225
0.0003500
6.197667
378.4463

## who was the most frequently listened to artist during a
## full moon?
joined %>% filter(MoonPhase == "Full Moon") %>% group_by(artistName) %>% 
    summarize(n = n()) %>% arrange(desc(n))

## # A tibble: 78 x 2
##    artistName                n
##    <chr>                 <int>
##  1 Toby Fox                 54
##  2 Ariana Grande            10
##  3 Everything Everything     5
##  4 Jessi                     5
##  5 Fall Out Boy              4
##  6 Janelle Mone             3
##  7 Papa Roach                3
##  8 SuperM                    3
##  9 TWICE                     3
## 10 Waterparks                3
## #  with 68 more rows
…
